
FILE: config/bootstrap.php
----------------------------------------------------------------------
FOUND 0 ERRORS AND 2 WARNINGS AFFECTING 2 LINES
----------------------------------------------------------------------
 13 | WARNING | Line exceeds 120 characters; contains 133 characters
 21 | WARNING | Line exceeds 120 characters; contains 147 characters
----------------------------------------------------------------------


FILE: public/index.php
----------------------------------------------------------------------
FOUND 0 ERRORS AND 1 WARNING AFFECTING 1 LINE
----------------------------------------------------------------------
 16 | WARNING | Line exceeds 120 characters; contains 130 characters
----------------------------------------------------------------------


FILE: src/Controller/FailleController.php
----------------------------------------------------------------------
FOUND 0 ERRORS AND 2 WARNINGS AFFECTING 2 LINES
----------------------------------------------------------------------
  35 | WARNING | Line exceeds 120 characters; contains 150 characters
 146 | WARNING | Line exceeds 120 characters; contains 126 characters
----------------------------------------------------------------------


FILE: src/Controller/ProductionController.php
----------------------------------------------------------------------
FOUND 0 ERRORS AND 1 WARNING AFFECTING 1 LINE
----------------------------------------------------------------------
 91 | WARNING | Line exceeds 120 characters; contains 169 characters
----------------------------------------------------------------------


FILE: src/Controller/SecurityController.php
----------------------------------------------------------------------
FOUND 0 ERRORS AND 1 WARNING AFFECTING 1 LINE
----------------------------------------------------------------------
 46 | WARNING | Line exceeds 120 characters; contains 146 characters
----------------------------------------------------------------------


FILE: src/Migrations/Version20190318143224.php
----------------------------------------------------------------------
FOUND 0 ERRORS AND 9 WARNINGS AFFECTING 9 LINES
----------------------------------------------------------------------
 23 | WARNING | Line exceeds 120 characters; contains 143 characters
 25 | WARNING | Line exceeds 120 characters; contains 198 characters
 26 | WARNING | Line exceeds 120 characters; contains 313 characters
 27 | WARNING | Line exceeds 120 characters; contains 279 characters
 28 | WARNING | Line exceeds 120 characters; contains 235 characters
 29 | WARNING | Line exceeds 120 characters; contains 161 characters
 30 | WARNING | Line exceeds 120 characters; contains 165 characters
 31 | WARNING | Line exceeds 120 characters; contains 138 characters
 37 | WARNING | Line exceeds 120 characters; contains 143 characters
----------------------------------------------------------------------


FILE: src/Migrations/Version20190318162808.php
----------------------------------------------------------------------
FOUND 0 ERRORS AND 3 WARNINGS AFFECTING 3 LINES
----------------------------------------------------------------------
 23 | WARNING | Line exceeds 120 characters; contains 143 characters
 25 | WARNING | Line exceeds 120 characters; contains 292 characters
 31 | WARNING | Line exceeds 120 characters; contains 143 characters
----------------------------------------------------------------------


FILE: src/Migrations/Version20190401100307.php
----------------------------------------------------------------------
FOUND 0 ERRORS AND 4 WARNINGS AFFECTING 4 LINES
----------------------------------------------------------------------
 23 | WARNING | Line exceeds 120 characters; contains 143 characters
 25 | WARNING | Line exceeds 120 characters; contains 302 characters
 26 | WARNING | Line exceeds 120 characters; contains 135 characters
 32 | WARNING | Line exceeds 120 characters; contains 143 characters
----------------------------------------------------------------------


FILE: src/Migrations/Version20190402093646.php
----------------------------------------------------------------------
FOUND 0 ERRORS AND 2 WARNINGS AFFECTING 2 LINES
----------------------------------------------------------------------
 23 | WARNING | Line exceeds 120 characters; contains 143 characters
 31 | WARNING | Line exceeds 120 characters; contains 143 characters
----------------------------------------------------------------------


FILE: src/Security/LoginFormAuthenticator.php
----------------------------------------------------------------------
FOUND 0 ERRORS AND 2 WARNINGS AFFECTING 2 LINES
----------------------------------------------------------------------
 31 | WARNING | Line exceeds 120 characters; contains 201 characters
 32 | WARNING | Line exceeds 120 characters; contains 154 characters
----------------------------------------------------------------------


